{
    "_loaded": true,
    "locale": "en_US",
    "matrix": [
        [
            "q",
            "w",
            "e",
            "r",
            "t",
            "y",
            "u",
            "i",
            "o",
            "p"
        ],
        [
            "a",
            "s",
            "d",
            "f",
            "g",
            "h",
            "j",
            "k",
            "l"
        ],
        [
            "z",
            "x",
            "c",
            "v",
            "b",
            "n",
            "m"
        ]
    ],
    "similars": {},
    "invalidWordPattern": "/[^a-zA-Z]/gi"
}