{
    "_loaded": true,
    "locale": "ro_RO",
    "matrix": [
        [
            "q",
            "w",
            "e",
            "r",
            "t",
            "y",
            "u",
            "i",
            "o",
            "p",
            "ă",
            "î",
            "â"
        ],
        [
            "a",
            "s",
            "d",
            "f",
            "g",
            "h",
            "j",
            "k",
            "l",
            "ș",
            "ț"
        ],
        [
            "z",
            "x",
            "c",
            "v",
            "b",
            "n",
            "m"
        ]
    ],
    "similars": {
        "a": "ăâ",
        "ă": "aâ",
        "â": "aă",
        "i": "î",
        "î": "i",
        "s": "ș",
        "ș": "s",
        "t": "ț",
        "ț": "t",
        "g": "j",
        "j": "g"
    },
    "invalidWordPattern": "/[^a-zA-ZăâîșțĂÂÎȘȚ]/gi"
}